<?xml version="1.0" encoding="UTF-8" standalone="no"?>
<!-- Created with Inkscape (http://www.inkscape.org/) -->

<svg
   xmlns:dc="http://purl.org/dc/elements/1.1/"
   xmlns:cc="http://creativecommons.org/ns#"
   xmlns:rdf="http://www.w3.org/1999/02/22-rdf-syntax-ns#"
   xmlns:svg="http://www.w3.org/2000/svg"
   xmlns="http://www.w3.org/2000/svg"
   xmlns:sodipodi="http://sodipodi.sourceforge.net/DTD/sodipodi-0.dtd"
   xmlns:inkscape="http://www.inkscape.org/namespaces/inkscape"
   width="16"
   height="16"
   viewBox="0 0 16 16"
   version="1.1"
   id="svg830"
   inkscape:version="0.92.2 (5c3e80d, 2017-08-06)"
   sodipodi:docname="icon-alert.svg">
  <defs
     id="defs824" />
  <sodipodi:namedview
     id="base"
     pagecolor="#ffffff"
     bordercolor="#666666"
     borderopacity="1.0"
     inkscape:pageopacity="0.0"
     inkscape:pageshadow="2"
     inkscape:zoom="27.677419"
     inkscape:cx="6.3752914"
     inkscape:cy="9.52331"
     inkscape:document-units="px"
     inkscape:current-layer="layer1"
     showgrid="true"
     units="px"
     inkscape:window-width="1920"
     inkscape:window-height="1027"
     inkscape:window-x="-8"
     inkscape:window-y="-8"
     inkscape:window-maximized="1"
     scale-x="1"
     inkscape:pagecheckerboard="false" />
  <metadata
     id="metadata827">
    <rdf:RDF>
      <cc:Work
         rdf:about="">
        <dc:format>image/svg+xml</dc:format>
        <dc:type
           rdf:resource="http://purl.org/dc/dcmitype/StillImage" />
        <dc:title></dc:title>
      </cc:Work>
    </rdf:RDF>
  </metadata>
  <g
     inkscape:label="Layer 1"
     inkscape:groupmode="layer"
     id="layer1"
     transform="translate(0,-292.76665)">
    <path
       style="fill:none;stroke:#ffffff;stroke-width:2.00000024;stroke-linecap:butt;stroke-linejoin:miter;stroke-miterlimit:4;stroke-dasharray:none;stroke-opacity:1"
       d="m 5.0000002,296.76663 v 8.00001"
       id="path5106"
       inkscape:connector-curvature="0" />
    <path
       style="fill:none;stroke:#ffffff;stroke-width:2.00000024;stroke-linecap:butt;stroke-linejoin:miter;stroke-miterlimit:4;stroke-dasharray:none;stroke-opacity:1"
       d="m 11,304.76664 c 0,0 0,0 0,-0.99998 0,-2.00002 -2.0340742,-2.74118 -3.0000002,-3 -0.9999999,-0.26797 -3.0000004,-0.84851 -3,-3 4e-7,-1.00003 0,-1.00003 0,-1.00003"
       id="path5074"
       inkscape:connector-curvature="0"
       sodipodi:nodetypes="ccssc" />
    <path
       style="fill:#ffffff;fill-opacity:1;stroke:none;stroke-width:1.99999988;stroke-miterlimit:4;stroke-dasharray:none;stroke-opacity:1"
       d="m 11,303.76664 a 2.0000001,1.9999999 0 0 0 -2,2 2.0000001,1.9999999 0 0 0 2,2 2.0000001,1.9999999 0 0 0 2,-2 2.0000001,1.9999999 0 0 0 -2,-2 z m 0,1 a 1.0000002,0.99999972 0 0 1 1,1 1.0000002,0.99999972 0 0 1 -1,1 1.0000002,0.99999972 0 0 1 -1,-1 1.0000002,0.99999972 0 0 1 1,-1 z"
       id="path5080"
       inkscape:connector-curvature="0" />
    <path
       style="fill:#ffffff;fill-opacity:1;stroke:none;stroke-width:1.99999988;stroke-miterlimit:4;stroke-dasharray:none;stroke-opacity:1"
       d="m 5,293.76664 a 2.0000003,1.9999999 0 0 0 -2,2 2.0000003,1.9999999 0 0 0 2,2 2.0000003,1.9999999 0 0 0 2,-2 2.0000003,1.9999999 0 0 0 -2,-2 z m 0,1 a 1.0000002,0.99999972 0 0 1 1,1 1.0000002,0.99999972 0 0 1 -1,1 1.0000002,0.99999972 0 0 1 -1,-1 1.0000002,0.99999972 0 0 1 1,-1 z"
       id="path5080-9"
       inkscape:connector-curvature="0" />
    <path
       style="fill:#ffffff;fill-opacity:1;stroke:none;stroke-width:1.99999988;stroke-miterlimit:4;stroke-dasharray:none;stroke-opacity:1"
       d="m 5,303.76664 a 2.0000003,1.9999999 0 0 0 -2,2 2.0000003,1.9999999 0 0 0 2,2 2.0000003,1.9999999 0 0 0 2,-2 2.0000003,1.9999999 0 0 0 -2,-2 z m 0,1 a 1.0000001,0.99999972 0 0 1 1,1 1.0000001,0.99999972 0 0 1 -1,1 1.0000001,0.99999972 0 0 1 -1,-1 1.0000001,0.99999972 0 0 1 1,-1 z"
       id="path5080-6"
       inkscape:connector-curvature="0" />
    <circle
       style="fill:#ff5061;fill-opacity:1;stroke:none;stroke-width:1.74972188;stroke-miterlimit:4;stroke-dasharray:none;stroke-opacity:1"
       id="path844"
       cx="11"
       cy="295.76666"
       r="2.75" />
  </g>
</svg>
