<?xml version="1.0" encoding="UTF-8" standalone="no"?>
<!-- Generator: Adobe Illustrator 16.0.0, SVG Export Plug-In . SVG Version: 6.00 Build 0)  -->

<svg
   xmlns:dc="http://purl.org/dc/elements/1.1/"
   xmlns:cc="http://creativecommons.org/ns#"
   xmlns:rdf="http://www.w3.org/1999/02/22-rdf-syntax-ns#"
   xmlns:svg="http://www.w3.org/2000/svg"
   xmlns="http://www.w3.org/2000/svg"
   xmlns:sodipodi="http://sodipodi.sourceforge.net/DTD/sodipodi-0.dtd"
   xmlns:inkscape="http://www.inkscape.org/namespaces/inkscape"
   version="1.1"
   id="Capa_1"
   x="0px"
   y="0px"
   width="52"
   height="52"
   viewBox="0 0 52 52"
   xml:space="preserve"
   sodipodi:docname="notifications-off.svg"
   inkscape:version="0.92.2 (5c3e80d, 2017-08-06)"><metadata
     id="metadata96"><rdf:RDF><cc:Work
         rdf:about=""><dc:format>image/svg+xml</dc:format><dc:type
           rdf:resource="http://purl.org/dc/dcmitype/StillImage" /><dc:title></dc:title></cc:Work></rdf:RDF></metadata><defs
     id="defs94" /><sodipodi:namedview
     pagecolor="#ffffff"
     bordercolor="#666666"
     borderopacity="1"
     objecttolerance="10"
     gridtolerance="10"
     guidetolerance="10"
     inkscape:pageopacity="0"
     inkscape:pageshadow="2"
     inkscape:window-width="1920"
     inkscape:window-height="1027"
     id="namedview92"
     showgrid="false"
     inkscape:zoom="7.9111111"
     inkscape:cx="41"
     inkscape:cy="22"
     inkscape:window-x="-8"
     inkscape:window-y="-8"
     inkscape:window-maximized="1"
     inkscape:current-layer="Capa_1" /><path
     style="fill:#bababa;stroke-width:0.05947726;fill-opacity:1"
     d="M 26 5.1992188 C 24.066929 5.1992188 22.472215 6.6110355 22.164062 8.4570312 C 17.588061 10.045609 14.300781 14.383172 14.300781 19.5 C 14.300781 26.258758 12.510338 32.013159 10.003906 34.181641 C 8.7274569 35.286146 7.9531518 36.846464 7.8261719 38.517578 L 16.882812 29.460938 C 17.729985 26.552587 18.199219 23.148776 18.199219 19.5 C 18.199219 15.198307 21.698307 11.699219 26 11.699219 C 28.36512 11.699219 30.48451 12.760609 31.916016 14.427734 L 34.673828 11.669922 C 33.367791 10.22811 31.713834 9.1089508 29.835938 8.4570312 C 29.527846 6.610976 27.933129 5.1992188 26 5.1992188 z M 37.712891 19.943359 L 34.011719 23.644531 C 34.630511 29.68542 36.593063 34.665122 39.445312 37.130859 C 39.988756 37.601443 40.300781 38.282407 40.300781 39 L 18.65625 39 L 14.755859 42.900391 L 22.099609 42.900391 C 22.099609 45.054479 23.845912 46.800781 26 46.800781 C 28.154088 46.800781 29.900391 45.054419 29.900391 42.900391 L 40.300781 42.900391 C 42.454869 42.900391 44.199219 41.154147 44.199219 39 C 44.199338 37.150198 43.396188 35.391944 41.996094 34.181641 C 39.546893 32.064184 37.79056 26.507339 37.712891 19.943359 z "
     id="path54" /><path
     style="color:#000000;font-style:normal;font-variant:normal;font-weight:normal;font-stretch:normal;font-size:medium;line-height:normal;font-family:sans-serif;font-variant-ligatures:normal;font-variant-position:normal;font-variant-caps:normal;font-variant-numeric:normal;font-variant-alternates:normal;font-feature-settings:normal;text-indent:0;text-align:start;text-decoration:none;text-decoration-line:none;text-decoration-style:solid;text-decoration-color:#000000;letter-spacing:normal;word-spacing:normal;text-transform:none;writing-mode:lr-tb;direction:ltr;text-orientation:mixed;dominant-baseline:auto;baseline-shift:baseline;text-anchor:start;white-space:normal;shape-padding:0;clip-rule:nonzero;display:inline;overflow:visible;visibility:visible;opacity:1;isolation:auto;mix-blend-mode:normal;color-interpolation:sRGB;color-interpolation-filters:linearRGB;solid-color:#000000;solid-opacity:1;vector-effect:none;fill:#bababa;fill-opacity:1;fill-rule:nonzero;stroke:none;stroke-width:3.99999976;stroke-linecap:butt;stroke-linejoin:miter;stroke-miterlimit:4;stroke-dasharray:none;stroke-dashoffset:0;stroke-opacity:1;color-rendering:auto;image-rendering:auto;shape-rendering:auto;text-rendering:auto;enable-background:accumulate"
     d="M 45.79899,3.3725831 3.372583,45.79899 6.201011,48.627417 48.627417,6.2010103 Z"
     id="path4606"
     inkscape:connector-curvature="0" /></svg>